%YAML 1.1
%TAG !u! tag:unity3d.com,2011:
--- !u!1045 &1
EditorBuildSettings:
  m_ObjectHideFlags: 0
  serializedVersion: 2
  m_Scenes:
  - enabled: 0
    path: 
    guid: 00000000000000000000000000000000
  - enabled: 1
    path: Assets/Scenes/MenuScene.unity
    guid: 9ab86b64e61a7d843a70bc5eedcb6541
  - enabled: 1
    path: Assets/Scenes/MapSceneold.unity
    guid: 5ab6f390343af674ea8677a1663bc10d
  - enabled: 1
    path: Assets/Scenes/AuthorsScene.unity
    guid: b24aac8b8c5772d4f9bccbe1820fa0a0
  - enabled: 1
    path: Assets/Scenes/OptionsScene.unity
    guid: 4460960205510a944b3e88bb7e06ff6c
  m_configObjects: {}
